Nom,Prénom,EMAIL,CCG
BAHMED,Myriam,mbahmed@todotoday.com,EPA049
BAPTENDIER,France ,fbaptendier@todotoday.com,EPA315
BARAZER,Hélène,hbarazer@todotoday.com,EPA308
BARET,Camille,cbaret@todotoday.com,EPA053
BELLANGER,Elise,ebellanger@todotoday.com,EPA018|EPA066
BENADDA,Fayçal,fbenadda@todotoday.com,EPA315|EPA029
GARNIER,Alexandre,agarnier@todotoday.com,EPA018|EPA026|EPA308|EPA055|EPA024|EPA053|EPA317|EPA311|EPA034|EPA004|EPA008|EPA313|EPA304|EPA307|EPA017|EPA045|EPA011|EPA314|EPA010|EPA029|EPA310|EPA041|EPA302|EPA303|EPA305|EPA005|EPA057|EPA301|EPA050|EPA059|EPA037|EPA049|EPA315|EPA312|EPA066|EPA318
BOUCHEZ,Emilie,ebouchez@todotoday.com,EPA043
BOUCLEY,Chloé,cboucley@todotoday.com,EPA303
BOUDJEMA,Nordine,nboudjema@todotoday.com,EPA314
BOUGRAINVILLE,Cynthia,cbougrainville@todotoday.com,EPA010|EPA041
BRUSSET,Charlotte,cbrusset@todotoday.com,EPA008|EPA060
COLLET,Nathalie,ncollet@todotoday.com,EPA018
REZIGA CHOURAQUI,Angélique,areziga@todotoday.com,EPA018|EPA026|EPA308|EPA055|EPA024|EPA053|EPA317|EPA311|EPA034|EPA004|EPA008|EPA313|EPA304|EPA307|EPA017|EPA045|EPA011|EPA314|EPA010|EPA029|EPA310|EPA041|EPA302|EPA303|EPA305|EPA005|EPA057|EPA301|EPA050|EPA059|EPA037|EPA049|EPA315|EPA312|EPA066|EPA318
QUEFFEULOU,Audrey,aqueffeulou@todotoday.com,EPA053|EPA050|EPA308|EPA055||EPA053|EPA317|EPA311|EPA034|EPA004|EPA008|EPA313|EPA304|EPA307|EPA017|EPA045|||EPA010|EPA029|EPA310|EPA041|EPA302|EPA303|EPA305||EPA057|EPA301|EPA050|EPA059||EPA049|EPA315|EPA312||EPA318
DE BRITO PELLEN,Dina,dpellen@todotoday.com,EPA318
LEFEVRE,Aurélie,alefevre@todotoday.com,EPA055||EPA308|EPA055||EPA053|EPA317|EPA311|EPA034|EPA004|EPA008|EPA313|EPA304|EPA307|EPA017|EPA045|||EPA010|EPA029|EPA310|EPA041|EPA302|EPA303|EPA305||EPA057|EPA301|EPA050|EPA059||EPA049|EPA315|EPA312||EPA318
DIALLO,Alpha-Omar,aodiallo@todotoday.com,EPA311
DUVAL,Emma,eduval@todotoday.com,EPA043
ECHARJANE,Nadia,necharjane@todotoday.com,EPA313|EPA066
EL IDRISSI,Diego Anas,delidrissi@todotoday.com,EPA057|EPA310
FATHI,Samira,sfathi@todotoday.com,EPA024
FOURNIER,Marie,mfournier@todotoday.com,EPA313
FRANCONNET,Marie-Laure,mfabrefranconnet@todotoday.com,EPA302|EPA305
GRANDE,Pascal,pgrande@todotoday.com,EPA307|EPA302|EPA305
GUILLOIS,Lucas,lguillois@todotoday.com,EPA066|EPA005
HAZAEL,Marie-Chantal,mhazael@todotoday.com,EPA053
CHARRON,Cécile,ccharron@todotoday.com,EPA005|EPA026|EPA308|EPA055|EPA024|EPA053|EPA317|EPA311|EPA034|EPA004|EPA008|EPA313|EPA304|EPA307|EPA017|EPA045|EPA011|EPA314|EPA010|EPA029|EPA310|EPA041|EPA302|EPA303|EPA305||EPA057|EPA301|EPA050|EPA059|EPA037|EPA049|EPA315|EPA312|EPA066|EPA318
KANTE,Aida,akante@todotoday.com,EPA004
KARELS,Sylvia,skarels@todotoday.com,EPA037
LAFARGE,Amaury,alafarge@todotoday.com,EPA066
LE ROUX,Virginie,vleroux@todotoday.com,EPA053|EPA004|EPA034
LHOTE,Nathalie,nlhote@todotoday.com,EPA312
LIENARD,Cécile,clienard@todotoday.com,EPA302|EPA305
LOICHOT,Aurélie,aloichot@todotoday.com,EPA034
LORTIGUES,Jean-Philippe,jlortigues@todotoday.com,EPA317
ROMANO,Giuliano,gromano@todotoday.com,EPA018|EPA026|EPA308|EPA055|EPA024|EPA053|EPA317|EPA311|EPA034|EPA004|EPA008|EPA313|EPA304|EPA307|EPA017|EPA045|EPA011|EPA314|EPA010|EPA029|EPA310|EPA041|EPA302|EPA303|EPA305|EPA005|EPA057|EPA301|EPA050|EPA059|EPA037|EPA049|EPA315|EPA312|EPA066|EPA318
MELGIRE,Perle,pmelgire@todotoday.com,EPA026
MOREAU,Marjorie,mmoreau@todotoday.fr,EPA057
NAIT HAMOUD,Dorine,dnait@todotoday.com,EPA304
NEGOUAI,Nicolas,nnegouai@todotoday.com,EPA026|EPA310
OUAIREM,Meriem,mouairem@todotoday.com,EPA053
PHALENTE,Alysson,aphalente@todotoday.com,EPA045
OGEL,Mélanie,mogel@todotoday.com,EPA303|EPA026|EPA308|EPA055|EPA024|EPA053|EPA317|EPA311|EPA034|EPA004|EPA008|EPA313|EPA304|EPA307|EPA017|EPA045|EPA011||EPA010|EPA029|EPA310|EPA041|EPA302|EPA303|EPA305|EPA005|EPA057|EPA301|EPA050|EPA059||EPA049|EPA315|EPA312|EPA066|EPA318
REGRENIL,Claire,cregrenil@todotoday.com,EPA313
RIFFAUD,Olivier,oriffaud@todotoday.com,EPA307
RODRIGUES DA COSTA,Alice,arodriguesdacosta@todotoday.com,EPA055
ROSSINI,Nathalie,nrossini@todotoday.fr,EPA029|EPA026|EPA308|EPA055|EPA024|EPA053|EPA317|EPA311|EPA034|EPA004|EPA008|EPA313|EPA304|EPA307|EPA017|EPA045|EPA011||EPA010|EPA029|EPA310|EPA041|EPA302|EPA303|EPA305|EPA005|EPA057|EPA301|EPA050|EPA059||EPA049|EPA315|EPA312|EPA066|EPA318
PIRASANNA,Panharen,ppirasanna@todotoday.com,EPA018|EPA026|EPA308|EPA055|EPA024|EPA053|EPA317|EPA311|EPA034|EPA004|EPA008|EPA313|EPA304|EPA307|EPA017|EPA045|EPA011|EPA314|EPA010|EPA029|EPA310|EPA041|EPA302|EPA303|EPA305|EPA005|EPA057|EPA301|EPA050|EPA059|EPA037|EPA049|EPA315|EPA312|EPA066|EPA318
SAUTEGEAU,Alexandra,asautegeau@todotoday.com,EPA301|EPA053
SERAUD,Frédéric,fseraud@todotoday.com,EPA301
SERENARI,Nathalie,nserenari@todotoday.com,EPA059|EPA053
SETTA,Abdelmajid,asetta@todotoday.com,EPA305
SIGAUDES,Hadrien,hsigaudes@todotoday.com,EPA301|EPA017
EKOUE BLA,Stéphane,sekoue-bla@todotoday.com,EPA066|EPA066||EPA055|EPA024|EPA053|EPA317|EPA311|EPA034|EPA004|EPA008|EPA313|EPA304|EPA307|EPA017|EPA045|EPA011|EPA314|EPA010|EPA029|EPA310|EPA041|EPA302|EPA303|EPA305|EPA005|EPA057|EPA301|EPA050|EPA059|EPA037|EPA049|EPA315|EPA312|EPA066|EPA318
TCHOULA,Ludovic,ltchoula@todotoday.com,EPA310
THELLIEZ,Laurence,lthelliez@todotoday.com,EPA029
TODO BOM,Paloma,ptodobom@todotoday.com,EPA017
VACCARI,Guillaume,gvaccari@todotoday.com,EPA053
GRENOUILLER,Fanélie,fgrenouiller@todotoday.com,ERA410
MOTTE,Mélanie,mmotte@todotoday.com,ERA404
PROVENT,Victor,vprovent@todotoday.com,ERA406
STAQUET,Marine,mstaquet@todotoday.com,ERA412
CERASO,Amélie,receptionmeyrin@bacardi.com,ECH611
FUENTES,Emma,barclays@todotoday.com,ECH606
LYONNET,Sandrine,conciergerie.hugsanssouci@hcuge.ch,ECH612
FUENTES,Emma,unigestion@todotoday.com,ECH605
CEREZ,Maria,totsa@todotoday.com,ECH602
CEREZ,Maria,conciergerie.nyon@mobi.ch,ECH615
HAYEZ,Sébastien,todotoday@nestle.com,ECH610
BUCHET,Natacha,loro@todotoday.com,ECH614
De kertanguy ,Constance,laconciergerie.3dswaltham@todotoday.com,EUS850
